Proporção de eleitores por habitantes nos municípios do Brasil
…
Mostrar o código

df_mun_nao_correspondentes <- compara_datasets(
  pop_mun, pop_eleit_mun,
  abbrev_state, abbrev_state,
  name_muni, name_muni)

Há 55 municípios sem correspondência.

Mostrar o código

df_mun_nao_correspondentes[, c("abbrev_state", "name_muni")]

# A tibble: 55 × 2
# Groups:   abbrev_state [18]
   abbrev_state name_muni               
   <chr>        <chr>                   
 1 RO           ALTA FLORESTA D'OESTE   
 2 RO           ESPIGÃO D'OESTE         
 3 RO           MACHADINHO D'OESTE      
 4 RO           NOVA BRASILÂNDIA D'OESTE
 5 RO           SANTA LUZIA D'OESTE     
 6 RO           ALVORADA D'OESTE        
 7 RO           SÃO FELIPE D'OESTE      
 8 AP           PEDRA BRANCA DO AMAPARI 
 9 TO           COUTO MAGALHÃES         
10 TO           SÃO VALÉRIO             
# ℹ 45 more rows
…
Há 37 municípios sem correspondência.

Mostrar o código

df_mun_nao_correspondentes[, c("abbrev_state", "nm_mun_ibge_tran")]

# A tibble: 37 × 2
# Groups:   abbrev_state [14]
   abbrev_state nm_mun_ibge_tran        
   <chr>        <chr>                   
 1 RO           ALTA FLORESTA D'OESTE   
 2 RO           ESPIGAO D'OESTE         
 3 RO           MACHADINHO D'OESTE      
 4 RO           NOVA BRASILANDIA D'OESTE
 5 RO           SANTA LUZIA D'OESTE     
 6 RO           ALVORADA D'OESTE        
 7 RO           SAO FELIPE D'OESTE      
 8 AP           PEDRA BRANCA DO AMAPARI 
 9 TO           COUTO MAGALHAES         
10 TO           SAO VALERIO             
# ℹ 27 more rows
…
